<svg xmlns="http://www.w3.org/2000/svg" viewBox="0 0 150 150" id="boxes-25" class="icons ">
  <defs>
    <style>
      .foreground {
        fill: none;
        stroke: #000;
        stroke-linejoin: round;
        stroke-width: 2px;
        
      }
      .lg-svg-text {
        font-size: 29.38px;
        font-family: Roboto-Regular, Roboto;
        fill: #000
      }

      .selected .foreground{
        stroke: #cc0003;
      }

      .selected .lg-svg-text {
        fill: #cc0003;
      }
    </style>
  </defs>
  <title>box-25</title>
  <g>
    <line class="foreground" x1="64.61" y1="66.86" x2="64.61" y2="131.98"/>
    <line class="foreground" x1="123.72" y1="63.6" x2="123.72" y2="37.56"/>
    <polygon class="foreground" points="64.61 5 5.5 34.3 5.5 37.56 64.61 66.86 123.72 37.56 123.72 34.3 64.61 5"/>
    <line class="foreground" x1="95.72" y1="50.58" x2="34.19" y2="20.08"/>
    <polyline class="foreground" points="77.06 125.81 64.61 131.98 5.5 102.67 5.5 37.56"/>
    <path class="foreground" d="M142.38,102.68c0,18-13.93,32.56-31.11,32.56s-31.12-14.58-31.12-32.56,13.93-32.56,31.12-32.56S142.38,84.7,142.38,102.68Z"/>
  </g>
  <text class="foreground lg-svg-text" transform="translate(84.85 114.04) scale(1.05 1)">100</text>
</svg>
